ualink_turbo64_v1_00_a/hdl/verilog/matrix_fma_8x8.vcd
$date
	Tue Jan 13 09:10:06 2026
$end
$version
	Icarus Verilog
$end
$timescale
	1s
$end
$scope module matrix_fma_8x8_tb $end
$var wire 1536 ! mat_out [1535:0] $end
$var wire 1 " we_b $end
$var wire 1 # done_fma $end
$var wire 8 $ addr_b [7:0] $end
$var parameter 32 % ACCUMULATOR_WIDTH $end
$var parameter 32 & WIDTH $end
$var reg 1 ' clk $end
$var reg 64 ( dout_b [63:0] $end
$var reg 512 ) mat_a [511:0] $end
$var reg 1536 * mat_c [1535:0] $end
$var reg 1 + rst_n $end
$var reg 1 , start_fma $end
$var integer 32 - i [31:0] $end
$var integer 32 . j [31:0] $end
$var integer 32 / offset [31:0] $end
$scope function get_mat_out $end
$var reg 3 0 col [2:0] $end
$var reg 3 1 row [2:0] $end
$upscope $end
$scope module dut $end
$var wire 1 ' clk $end
$var wire 64 2 dout_b [63:0] $end
$var wire 1 + rst_n $end
$var wire 1 , start_fma $end
$var wire 1 " we_b $end
$var parameter 3 3 ACCUMULATE $end
$var parameter 32 4 ACCUMULATOR_WIDTH $end
$var parameter 3 5 DONE $end
$var parameter 3 6 IDLE $end
$var parameter 3 7 LOAD_B $end
$var parameter 3 8 MULTIPLY $end
$var parameter 32 9 WIDTH $end
$var reg 8 : addr_b [7:0] $end
$var reg 8 ; addr_b_base [7:0] $end
$var reg 1 # done_fma $end
$var reg 1216 < dot_products [1215:0] $end
$var reg 4 = load_counter [3:0] $end
$var reg 512 > mat_a [511:0] $end
$var reg 512 ? mat_b [511:0] $end
$var reg 1536 @ mat_c [1535:0] $end
$var reg 1536 A mat_c_pipe [1535:0] $end
$var reg 1536 B mat_out [1535:0] $end
$var reg 3 C next_state [2:0] $end
$var reg 8192 D products [8191:0] $end
$var reg 3 E state [2:0] $end
$var reg 1 F valid_accumulate $end
$var reg 1 G valid_multiply $end
$var integer 32 H i [31:0] $end
$var integer 32 I idx_c [31:0] $end
$var integer 32 J j [31:0] $end
$var integer 32 K k [31:0] $end
$scope function get_dot_product $end
$var reg 3 L i [2:0] $end
$var reg 3 M j [2:0] $end
$var integer 32 N offset [31:0] $end
$upscope $end
$scope function get_mat_a $end
$var reg 3 O col [2:0] $end
$var reg 3 P row [2:0] $end
$var integer 32 Q offset [31:0] $end
$upscope $end
$scope function get_mat_b $end
$var reg 3 R col [2:0] $end
$var reg 3 S row [2:0] $end
$var integer 32 T offset [31:0] $end
$upscope $end
$scope function get_mat_c $end
$var reg 3 U col [2:0] $end
$var reg 3 V row [2:0] $end
$var integer 32 W offset [31:0] $end
$upscope $end
$scope function get_product $end
$var reg 3 X i [2:0] $end
$var reg 3 Y j [2:0] $end
$var reg 3 Z k [2:0] $end
$var integer 32 [ offset [31:0] $end
$upscope $end
$scope task set_dot_product $end
$var reg 3 \ i [2:0] $end
$var reg 3 ] j [2:0] $end
$var reg 19 ^ value [18:0] $end
$var integer 32 _ offset [31:0] $end
$upscope $end
$scope task set_mat_b $end
$var reg 3 ` col [2:0] $end
$var reg 3 a row [2:0] $end
$var reg 8 b value [7:0] $end
$var integer 32 c offset [31:0] $end
$upscope $end
$scope task set_mat_out $end
$var reg 3 d i [2:0] $end
$var reg 3 e j [2:0] $end
$var reg 24 f value [23:0] $end
$var integer 32 g offset [31:0] $end
$upscope $end
$scope task set_product $end
$var reg 3 h i [2:0] $end
$var reg 3 i j [2:0] $end
$var reg 3 j k [2:0] $end
$var reg 16 k value [15:0] $end
$var integer 32 l offset [31:0] $end
$upscope $end
$upscope $end
$scope task set_mat_a $end
$var reg 3 m col [2:0] $end
$var reg 3 n row [2:0] $end
$var reg 8 o value [7:0] $end
$upscope $end
$scope task set_mat_c $end
$var reg 3 p col [2:0] $end
$var reg 3 q row [2:0] $end
$var reg 24 r value [23:0] $end
$upscope $end
$upscope $end
$enddefinitions $end
$comment Show the parameter values. $end
$dumpall
b1000 9
b10 8
b1 7
b0 6
b100 5
b11000 4
b11 3
b1000 &
b11000 %
$end
#0
$dumpvars
bx r
bx q
bx p
bx o
bx n
bx m
bx l
bx k
bx j
bx i
bx h
bx g
bx f
bx e
bx d
bx c
bx b
bx a
bx `
bx _
bx ^
bx ]
bx \
bx [
bx Z
bx Y
bx X
bx W
bx V
bx U
bx T
bx S
bx R
bx Q
bx P
bx O
bx N
bx M
bx L
bx K
bx J
bx I
bx H
0G
0F
b0 E
b0 D
b0 C
b0 B
b0 A
bx @
b0 ?
bx >
b0 =
b0 <
bx ;
b0 :
b0 2
bx 1
bx 0
bx /
bx .
b100000000 -
0,
0+
b0 *
b0 )
b0 (
0'
b0 $
0#
z"
bz !
$end
#5
1'
#10
0'
#15
1'
#20
0'
1+
#25
1'
#30
0'
#35
1'
#40
b1 C
b0 ;
b10100000101000001010000010100000101000001010000010100000101 (
b10100000101000001010000010100000101000001010000010100000101 2
0'
1,
b0 r
b111 p
b111 q
b1000000000000000000000000000000000000000000000000000000000000000000000001000000000000000000000000000000000000000000000000000000000000000000000001000000000000000000000000000000000000000000000000000000000000000000000001000000000000000000000000000000000000000000000000000000000000000000000001000000000000000000000000000000000000000000000000000000000000000000000001000000000000000000000000000000000000000000000000000000000000000000000001000000000000000000000000000000000000000000000000000000000000000000000001 )
b10111101000 /
b1 o
b111 m
b111 n
b1000 .
b1000 -
#45
b1 E
1'
#50
0'
0,
#55
b1 $
b1 :
b1 =
b10100000101000001010000010100000101000001010000010100000101 ?
b111000 c
b101 b
b111 `
b0 a
b1000 J
1'
#60
0'
#65
b10 $
b10 :
b10 =
b101000001010000010100000101000001010000010100000101000001010000010100000101000001010000010100000101000001010000010100000101 ?
b1111000 c
b111 `
b1 a
b1000 J
1'
#70
0'
#75
b11 $
b11 :
b11 =
b1010000010100000101000001010000010100000101000001010000010100000101000001010000010100000101000001010000010100000101000001010000010100000101000001010000010100000101000001010000010100000101 ?
b10111000 c
b111 `
b10 a
b1000 J
1'
#80
0'
#85
b100 $
b100 :
b100 =
b10100000101000001010000010100000101000001010000010100000101000001010000010100000101000001010000010100000101000001010000010100000101000001010000010100000101000001010000010100000101000001010000010100000101000001010000010100000101000001010000010100000101 ?
b11111000 c
b111 `
b11 a
b1000 J
1'
#90
0'
#95
b101 $
b101 :
b101 =
b101000001010000010100000101000001010000010100000101000001010000010100000101000001010000010100000101000001010000010100000101000001010000010100000101000001010000010100000101000001010000010100000101000001010000010100000101000001010000010100000101000001010000010100000101000001010000010100000101000001010000010100000101 ?
b100111000 c
b111 `
b100 a
b1000 J
1'
#100
0'
#105
b110 $
b110 :
b110 =
b1010000010100000101000001010000010100000101000001010000010100000101000001010000010100000101000001010000010100000101000001010000010100000101000001010000010100000101000001010000010100000101000001010000010100000101000001010000010100000101000001010000010100000101000001010000010100000101000001010000010100000101000001010000010100000101000001010000010100000101000001010000010100000101 ?
b101111000 c
b111 `
b101 a
b1000 J
1'
#110
0'
#115
b10 C
b111 $
b111 :
b111 =
b10100000101000001010000010100000101000001010000010100000101000001010000010100000101000001010000010100000101000001010000010100000101000001010000010100000101000001010000010100000101000001010000010100000101000001010000010100000101000001010000010100000101000001010000010100000101000001010000010100000101000001010000010100000101000001010000010100000101000001010000010100000101000001010000010100000101000001010000010100000101000001010000010100000101 ?
b110111000 c
b111 `
b110 a
b1000 J
1'
#120
0'
#125
b11 C
b10 E
b101000001010000010100000101000001010000010100000101000001010000010100000101000001010000010100000101000001010000010100000101000001010000010100000101000001010000010100000101000001010000010100000101000001010000010100000101000001010000010100000101000001010000010100000101000001010000010100000101000001010000010100000101000001010000010100000101000001010000010100000101000001010000010100000101000001010000010100000101000001010000010100000101000001010000010100000101000001010000010100000101000001010000010100000101 ?
b111111000 c
b111 `
b111 a
b1000 J
1'
#130
0'
#135
b100 C
b11 E
1G
b0 =
b0 $
b0 :
bx D
b1111111110000 l
b111111000 T
b111 S
b111 R
b111111000 Q
b111 P
b111 O
b111 j
b111 i
b111 h
b1000 K
b1000 J
b1000 H
1'
#140
0'
#145
bx A
1F
b100 E
0G
bx <
b10010101101 _
b1111111110000 [
b111 X
b111 Y
b111 Z
b111 ]
b111 \
b1000 J
b1000 H
1'
#150
0'
#155
1#
b1 $
b1 :
b1 =
0F
bx B
b10111101000 g
b10010101101 N
b111 L
b111 M
b111 e
b111 d
b10111101000 I
b1000 J
b1000 H
1'
#160
0'
#165
b10 $
b10 :
b10 =
1'
b11000 /
b0 1
b1 0
#170
0'
#175
b11 $
b11 :
b11 =
1'
#180
0'
#185
b100 $
b100 :
b100 =
1'
#190
0'
#195
b101 $
b101 :
b101 =
1'
#200
0'
#205
b110 $
b110 :
b110 =
1'
#210
0'
#215
b0 C
b111 $
b111 :
b111 =
b1100000011000000110000001100000011000000110000001100000011 (
b1100000011000000110000001100000011000000110000001100000011 2
1'
1,
b1010000000000000000000001010000000000000000000001010000000000000000000001010000000000000000000001010000000000000000000001010000000000000000000001010000000000000000000001010000000000000000000001010000000000000000000001010000000000000000000001010000000000000000000001010000000000000000000001010000000000000000000001010000000000000000000001010000000000000000000001010000000000000000000001010000000000000000000001010000000000000000000001010000000000000000000001010000000000000000000001010000000000000000000001010000000000000000000001010000000000000000000001010000000000000000000001010000000000000000000001010000000000000000000001010000000000000000000001010000000000000000000001010000000000000000000001010000000000000000000001010000000000000000000001010000000000000000000001010000000000000000000001010000000000000000000001010000000000000000000001010000000000000000000001010000000000000000000001010000000000000000000001010000000000000000000001010000000000000000000001010000000000000000000001010000000000000000000001010000000000000000000001010000000000000000000001010000000000000000000001010000000000000000000001010000000000000000000001010000000000000000000001010000000000000000000001010000000000000000000001010000000000000000000001010000000000000000000001010000000000000000000001010000000000000000000001010000000000000000000001010000000000000000000001010000000000000000000001010000000000000000000001010000000000000000000001010000000000000000000001010000000000000000000001010000000000000000000001010000000000000000000001010 *
b1010 r
b111 p
b111 q
b10000000100000001000000010000000100000001000000010000000100000001000000010000000100000001000000010000000100000001000000010000000100000001000000010000000100000001000000010000000100000001000000010000000100000001000000010000000100000001000000010000000100000001000000010000000100000001000000010000000100000001000000010000000100000001000000010000000100000001000000010000000100000001000000010000000100000001000000010000000100000001000000010000000100000001000000010000000100000001000000010000000100000001000000010 )
b10111101000 /
b10 o
b111 m
b111 n
b1000 .
b1000 -
#220
0'
#225
b0 E
b0 C
1'
0,
#230
0'
#235
0#
1'
b11 1
b1010111000 /
b101 0
