ualink_turbo64_v1_00_a/hdl/verilog/matrix_fma_8x8.vcd
$date
	Thu Jan 15 10:35:18 2026
$end
$version
	Icarus Verilog
$end
$timescale
	1s
$end
$scope module matrix_fma_8x8_tb $end
$var wire 1536 ! mat_out [1535:0] $end
$var wire 1 " we_b $end
$var wire 1 # done_fma $end
$var parameter 32 $ ACCUMULATOR_WIDTH $end
$var parameter 32 % WIDTH $end
$var reg 8 & addr_base [7:0] $end
$var reg 1 ' clk $end
$var reg 64 ( dout_b [63:0] $end
$var reg 512 ) mat_a [511:0] $end
$var reg 1536 * mat_c [1535:0] $end
$var reg 1 + rst_n $end
$var reg 1 , start_fma $end
$var integer 32 - i [31:0] $end
$var integer 32 . j [31:0] $end
$var integer 32 / offset [31:0] $end
$scope function get_mat_out $end
$var reg 3 0 col [2:0] $end
$var reg 3 1 row [2:0] $end
$upscope $end
$scope module dut $end
$var wire 8 2 addr_base [7:0] $end
$var wire 1 ' clk $end
$var wire 64 3 dout_b [63:0] $end
$var wire 1 + rst_n $end
$var wire 1 , start_fma $end
$var wire 1 " we_b $end
$var parameter 3 4 ACCUMULATE $end
$var parameter 32 5 ACCUMULATOR_WIDTH $end
$var parameter 3 6 DONE $end
$var parameter 3 7 IDLE $end
$var parameter 3 8 LOAD_B $end
$var parameter 3 9 MULTIPLY $end
$var parameter 32 : WIDTH $end
$var reg 8 ; addr_b [7:0] $end
$var reg 8 < addr_b_base [7:0] $end
$var reg 64 = din_b [63:0] $end
$var reg 1 # done_fma $end
$var reg 1216 > dot_products [1215:0] $end
$var reg 4 ? load_counter [3:0] $end
$var reg 512 @ mat_a [511:0] $end
$var reg 512 A mat_b [511:0] $end
$var reg 1536 B mat_c [1535:0] $end
$var reg 1536 C mat_c_pipe [1535:0] $end
$var reg 1536 D mat_out [1535:0] $end
$var reg 3 E next_state [2:0] $end
$var reg 8192 F products [8191:0] $end
$var reg 3 G state [2:0] $end
$var reg 1 H valid_accumulate $end
$var reg 1 I valid_multiply $end
$var integer 32 J i [31:0] $end
$var integer 32 K idx_c [31:0] $end
$var integer 32 L j [31:0] $end
$var integer 32 M k [31:0] $end
$scope function get_dot_product $end
$var reg 3 N i [2:0] $end
$var reg 3 O j [2:0] $end
$var integer 32 P offset [31:0] $end
$upscope $end
$scope function get_mat_a $end
$var reg 3 Q col [2:0] $end
$var reg 3 R row [2:0] $end
$var integer 32 S offset [31:0] $end
$upscope $end
$scope function get_mat_b $end
$var reg 3 T col [2:0] $end
$var reg 3 U row [2:0] $end
$var integer 32 V offset [31:0] $end
$upscope $end
$scope function get_mat_c $end
$var reg 3 W col [2:0] $end
$var reg 3 X row [2:0] $end
$var integer 32 Y offset [31:0] $end
$upscope $end
$scope function get_product $end
$var reg 3 Z i [2:0] $end
$var reg 3 [ j [2:0] $end
$var reg 3 \ k [2:0] $end
$var integer 32 ] offset [31:0] $end
$upscope $end
$scope task set_dot_product $end
$var reg 3 ^ i [2:0] $end
$var reg 3 _ j [2:0] $end
$var reg 19 ` value [18:0] $end
$var integer 32 a offset [31:0] $end
$upscope $end
$scope task set_mat_b $end
$var reg 3 b col [2:0] $end
$var reg 3 c row [2:0] $end
$var reg 8 d value [7:0] $end
$var integer 32 e offset [31:0] $end
$upscope $end
$scope task set_mat_out $end
$var reg 3 f i [2:0] $end
$var reg 3 g j [2:0] $end
$var reg 24 h value [23:0] $end
$var integer 32 i offset [31:0] $end
$upscope $end
$scope task set_mat_outmem $end
$var reg 3 j col [2:0] $end
$var reg 3 k row [2:0] $end
$var reg 8 l value [7:0] $end
$var integer 32 m offset [31:0] $end
$upscope $end
$scope task set_product $end
$var reg 3 n i [2:0] $end
$var reg 3 o j [2:0] $end
$var reg 3 p k [2:0] $end
$var reg 16 q value [15:0] $end
$var integer 32 r offset [31:0] $end
$upscope $end
$upscope $end
$scope task set_mat_a $end
$var reg 3 s col [2:0] $end
$var reg 3 t row [2:0] $end
$var reg 8 u value [7:0] $end
$upscope $end
$scope task set_mat_c $end
$var reg 3 v col [2:0] $end
$var reg 3 w row [2:0] $end
$var reg 24 x value [23:0] $end
$upscope $end
$upscope $end
$enddefinitions $end
$comment Show the parameter values. $end
$dumpall
b1000 :
b10 9
b1 8
b0 7
b100 6
b11000 5
b11 4
b1000 %
b11000 $
$end
#0
$dumpvars
bx x
bx w
bx v
bx u
bx t
bx s
bx r
bx q
bx p
bx o
bx n
bx m
bx l
bx k
bx j
bx i
bx h
bx g
bx f
bx e
bx d
bx c
bx b
bx a
bx `
bx _
bx ^
bx ]
bx \
bx [
bx Z
bx Y
bx X
bx W
bx V
bx U
bx T
bx S
bx R
bx Q
bx P
bx O
bx N
bx M
bx L
bx K
bx J
0I
0H
b0 G
b0 F
b0 E
b0 D
b0 C
b0 B
b0 A
b10010001101000101011001111000100110101011110011011110111100000000000000000000000000000000000000000000000000000000000000000000 @
b0 ?
b0 >
b0 =
b100000 <
b0 ;
b100100011010001010110011110001001101010111100110111101111 3
b100000 2
bx 1
bx 0
bx /
bx .
b100000000 -
0,
0+
b0 *
b0 )
b100100011010001010110011110001001101010111100110111101111 (
0'
b100000 &
0#
z"
bz !
$end
#5
1'
#10
0'
#15
1'
#20
0'
1+
#25
1'
#30
0'
#35
1'
#40
b1 E
0'
1,
b0 x
b111 v
b111 w
b1000000000000000000000000000000000000000000000000000000000000000000000001000000000000000000000000000000000000000000000000000000000000000000000001000000000000000000000000000000000000000000000000000000000000000000000001000000000000000000000000000000000000000000000000000000000000000000000001000000000000000000000000000000000000000000000000000000000000000000000001000000000000000000000000000000000000000000000000000000000000000000000001000000000000000000000000000000000000000000000000000000000000000000000001 )
b10111101000 /
b1 u
b111 s
b111 t
b1000 .
b1000 -
#45
b100000 ;
b1 G
1'
#50
0'
0,
#55
b100001 ;
b1 ?
b100100011010001010110011110001001101010111100110111101111 A
b111000 e
b1 d
b111 b
b0 c
b1000 L
1'
#60
0'
#65
b100010 ;
b10 ?
b1001000110100010101100111100010011010101111001101111011110000000100100011010001010110011110001001101010111100110111101111 A
b1111000 e
b1 d
b111 b
b1 c
b1000 L
1'
#70
0'
#75
b100011 ;
b11 ?
b10010001101000101011001111000100110101011110011011110111100000001001000110100010101100111100010011010101111001101111011110000000100100011010001010110011110001001101010111100110111101111 A
b10111000 e
b1 d
b111 b
b10 c
b1000 L
1'
#80
0'
#85
b100100 ;
b100 ?
b100100011010001010110011110001001101010111100110111101111000000010010001101000101011001111000100110101011110011011110111100000001001000110100010101100111100010011010101111001101111011110000000100100011010001010110011110001001101010111100110111101111 A
b11111000 e
b1 d
b111 b
b11 c
b1000 L
1'
#90
0'
#95
b100101 ;
b101 ?
b1001000110100010101100111100010011010101111001101111011110000000100100011010001010110011110001001101010111100110111101111000000010010001101000101011001111000100110101011110011011110111100000001001000110100010101100111100010011010101111001101111011110000000100100011010001010110011110001001101010111100110111101111 A
b100111000 e
b1 d
b111 b
b100 c
b1000 L
1'
#100
0'
#105
b100110 ;
b110 ?
b10010001101000101011001111000100110101011110011011110111100000001001000110100010101100111100010011010101111001101111011110000000100100011010001010110011110001001101010111100110111101111000000010010001101000101011001111000100110101011110011011110111100000001001000110100010101100111100010011010101111001101111011110000000100100011010001010110011110001001101010111100110111101111 A
b101111000 e
b1 d
b111 b
b101 c
b1000 L
1'
#110
0'
#115
b10 E
b100111 ;
b111 ?
b100100011010001010110011110001001101010111100110111101111000000010010001101000101011001111000100110101011110011011110111100000001001000110100010101100111100010011010101111001101111011110000000100100011010001010110011110001001101010111100110111101111000000010010001101000101011001111000100110101011110011011110111100000001001000110100010101100111100010011010101111001101111011110000000100100011010001010110011110001001101010111100110111101111 A
b110111000 e
b1 d
b111 b
b110 c
b1000 L
1'
#120
0'
#125
b11 E
b10 G
b1001000110100010101100111100010011010101111001101111011110000000100100011010001010110011110001001101010111100110111101111000000010010001101000101011001111000100110101011110011011110111100000001001000110100010101100111100010011010101111001101111011110000000100100011010001010110011110001001101010111100110111101111000000010010001101000101011001111000100110101011110011011110111100000001001000110100010101100111100010011010101111001101111011110000000100100011010001010110011110001001101010111100110111101111 A
b111111000 e
b1 d
b111 b
b111 c
b1000 L
1'
#130
0'
#135
b100 E
b11 G
1I
b0 ?
b100100000000000110100000000000101011000000000011110001111111110011010111111111011110011111111110111101111111111110000000000100111011000000111000111000000101111000010000100000110100011110010000011101111011010110100111110110101101011111101110100000000010011011010000011100000010000010111001011100010000001011000111001001000001011101101101011001111011011010110111110111011000000000111001111100001010011101100001000101001101000110000010010001101011011110110111001001010010011110010010100101111100110010000111101111010001011100111110101001101100000000110110010000011100000101111011010100001111110011100000011111100111000000111011100001111101000000110111011101011110011100011011100101101100000101000001000011101111000010110100101000000101101001010000001010101000011111100011010101111010110100100111011101101111011101000000110000001010001010010000011011000110000000110110001100000001100110000111111101100111011111100100011001111101001001010111110000000100000000110110001100000010010000100000000100100001000000001000100000000000000000000000000000000000000000000000000000000000000000000000000000000000000000000000000000000000000000000000000000000000000000000000000000000000000000000000000000000000000000000000000000000000000000000000000000000000000000000000000000000000000000000000000000000000000000000000000000000000000000000000000000000000000000000000000000000000000000000000000000000000000000000000000000000000000000000000000000000000000000000000000000000000000000000000000000000000000000000000000000000000000000000000000000000000000000000000000000000000000000000000000000000000000000000000000000000000000000000000000000000000000000000000000000000000000000000000000000000000000000000000000000000000000000000000000000000000000000000000000000000000000000000000000000000000000000000000000000000000000000000000000000000000000000000000000000000000000000000000000000000000000000000000000000000000000000000000000000000000000000000000000000000000000000000000000000000000000000000000000000000000000000000000000000000000000000000000000000000000000000000 F
b1111111110000 r
b0 q
b111111000 V
b111 U
b111 T
b111111000 S
b111 R
b111 Q
b111 p
b111 o
b111 n
b1000 M
b1000 L
b1000 J
1'
#140
0'
#145
1H
b100 G
0I
b111000000000001111010100000000001111000110000000001011010001000111111001011111100011111101101011010001111111010011011000111111111000100100000000000000000000000000000000000000000000000000000000000000000000000000000000000000000000000000000000000000000000000000000000000000000000000000000000000 >
b10010101101 a
b0 `
b1111111110000 ]
b111 Z
b111 [
b111 \
b111 _
b111 ^
b1000 L
b1000 J
1'
#150
0'
#155
1#
b101000 ;
b1 ?
0H
b0 m
b111000000000000000011110101000000000000000111100011000000000000001011010001000000001111110010111111000000001111110110101101000000001111111010011011000000001111111110001001000000000000000000000000000000000000000000000000000000000000000000000000000000000000000000000000000000000000000000000000000000000000000000000000000000000000000000000000000000000000000000000000000 D
b10111101000 i
b0 h
b10010101101 P
b111 N
b111 O
b111 g
b111 f
b10111101000 K
b1000 J
b0 l
b0 j
b0 k
b1001 L
1'
#160
0'
#165
b101001 ;
b10 ?
b111 j
b1111000 m
b1 k
b1000 L
1'
b11000 /
b0 1
b1 0
#170
0'
#175
b101010 ;
b11 ?
b10111000 m
b111 j
b10 k
b1000 L
1'
#180
0'
#185
b101011 ;
b100 ?
b11101101 =
b11111000 m
b111 j
b11 k
b1000 L
1'
#190
0'
#195
b101100 ;
b101 ?
b11000 =
b100111000 m
b0 l
b111 j
b100 k
b1000 L
1'
#200
0'
#205
b101101 ;
b110 ?
b0 =
b101111000 m
b0 l
b111 j
b101 k
b1000 L
1'
#210
0'
#215
b0 E
b101110 ;
b111 ?
b110111000 m
b111 j
b110 k
b1000 L
1'
#220
0'
#225
b0 G
b111111000 m
b111 j
b111 k
b1000 L
1'
#230
0'
#235
0#
1'
#240
0'
#245
1'
#250
0'
#255
1'
#260
0'
#265
1'
#270
0'
#275
1'
#280
0'
#285
1'
#290
0'
#295
1'
#300
0'
#305
1'
#310
0'
#315
1'
#320
0'
#325
1'
#330
0'
#335
1'
#340
0'
#345
1'
#350
0'
#355
1'
#360
0'
#365
1'
#370
0'
#375
1'
#380
0'
#385
1'
#390
0'
#395
1'
#400
0'
#405
1'
#410
0'
#415
b1 G
b0 ?
b100000 ;
b1 E
1'
1,
b1010000000000000000000001010000000000000000000001010000000000000000000001010000000000000000000001010000000000000000000001010000000000000000000001010000000000000000000001010000000000000000000001010000000000000000000001010000000000000000000001010000000000000000000001010000000000000000000001010000000000000000000001010000000000000000000001010000000000000000000001010000000000000000000001010000000000000000000001010000000000000000000001010000000000000000000001010000000000000000000001010000000000000000000001010000000000000000000001010000000000000000000001010000000000000000000001010000000000000000000001010000000000000000000001010000000000000000000001010000000000000000000001010000000000000000000001010000000000000000000001010000000000000000000001010000000000000000000001010000000000000000000001010000000000000000000001010000000000000000000001010000000000000000000001010000000000000000000001010000000000000000000001010000000000000000000001010000000000000000000001010000000000000000000001010000000000000000000001010000000000000000000001010000000000000000000001010000000000000000000001010000000000000000000001010000000000000000000001010000000000000000000001010000000000000000000001010000000000000000000001010000000000000000000001010000000000000000000001010000000000000000000001010000000000000000000001010000000000000000000001010000000000000000000001010000000000000000000001010000000000000000000001010000000000000000000001010000000000000000000001010000000000000000000001010000000000000000000001010000000000000000000001010 *
b1010 x
b111 v
b111 w
b10000000100000001000000010000000100000001000000010000000100000001000000010000000100000001000000010000000100000001000000010000000100000001000000010000000100000001000000010000000100000001000000010000000100000001000000010000000100000001000000010000000100000001000000010000000100000001000000010000000100000001000000010000000100000001000000010000000100000001000000010000000100000001000000010000000100000001000000010000000100000001000000010000000100000001000000010000000100000001000000010000000100000001000000010 )
b10111101000 /
b10 u
b111 s
b111 t
b1000 .
b1000 -
#420
0'
#425
b100001 ;
b1 ?
b111000 e
b1 d
b111 b
b0 c
b1000 L
1'
0,
#430
0'
#435
b100010 ;
b10 ?
b1111000 e
b1 d
b111 b
b1 c
b1000 L
1'
#440
0'
#445
b100011 ;
b11 ?
b10111000 e
b1 d
b111 b
b10 c
b1000 L
1'
#450
0'
#455
b100100 ;
b100 ?
b11111000 e
b1 d
b111 b
b11 c
b1000 L
1'
#460
0'
#465
b100101 ;
b101 ?
b100111000 e
b1 d
b111 b
b100 c
b1000 L
1'
#470
0'
#475
b100110 ;
b110 ?
b101111000 e
b1 d
b111 b
b101 c
b1000 L
1'
#480
0'
#485
b10 E
b100111 ;
b111 ?
b110111000 e
b1 d
b111 b
b110 c
b1000 L
1'
#490
0'
#495
b11 E
b10 G
b111111000 e
b1 d
b111 b
b111 c
b1000 L
1'
#500
0'
#505
b100 E
b11 G
1I
b0 ?
b0 q
b1111111110000 r
b111111000 V
b111 U
b111 T
b111111000 S
b111 R
b111 Q
b111 p
b111 o
b111 n
b1000 M
b1000 L
b1000 J
1'
#510
0'
#515
b100 G
1H
0I
b0 `
b10010101101 a
b1111111110000 ]
b111 Z
b111 [
b111 \
b111 _
b111 ^
b1000 L
b1000 J
1'
#520
0'
#525
1#
b101000 ;
b1 ?
0H
b0 m
b0 h
b10111101000 i
b10010101101 P
b111 N
b111 O
b111 g
b111 f
b10111101000 K
b1000 J
b0 j
b0 k
b1001 L
1'
#530
0'
#535
b101001 ;
b10 ?
b111 j
b1111000 m
b1 k
b1000 L
1'
b11 1
b1010111000 /
b101 0
#540
0'
#545
b101010 ;
b11 ?
b10111000 m
b111 j
b10 k
b1000 L
1'
#550
0'
#555
b101011 ;
b100 ?
b11101101 =
b11111000 m
b111 j
b11 k
b1000 L
1'
#560
0'
#565
b101100 ;
b101 ?
b11000 =
b100111000 m
b0 l
b111 j
b100 k
b1000 L
1'
#570
0'
#575
b101101 ;
b110 ?
b0 =
b101111000 m
b0 l
b111 j
b101 k
b1000 L
1'
#580
0'
#585
b0 E
b101110 ;
b111 ?
b110111000 m
b111 j
b110 k
b1000 L
1'
#590
0'
#595
b0 G
b111111000 m
b111 j
b111 k
b1000 L
1'
#600
0'
#605
0#
1'
