ualink_turbo64_v1_00_a/hdl/verilog/ualink_turbordwr_tb.log
VCD info: dumpfile ualink_turbo64_tb.vcd opened for output.
========================================
UALink Turbo64 Testbench Started
Testing DPMEM through AXI Stream
========================================

=== Test 1: Memory Write Operation (opcode 0x0245) ===
  Sending write packet: data=0xdeadbeefcafebeef
  [Master Output] tdata=0x6162636465666768, tlast=0, time=              115000
UAlink write opcode 0003
  [Master Output] tdata=0x0245000000000003, tlast=0, time=              125000
UAlink write opcode 0003
UAlink write opcode 0003
  [Master Output] tdata=0x0245000000000003, tlast=0, time=              135000
  [State Change] -> IDLE
UAlink write opcode 0003
  [Master Output] tdata=0x6162636465666768, tlast=0, time=              145000
  [Master Output] tdata=0x6162636465666768, tlast=0, time=              155000
  [State Change] -> State 0xa
  [State Change] -> State 0xb
  [Master Output] tdata=0x6162636465666768, tlast=0, time=              165000
  [Master Output] tdata=0x6162636465666768, tlast=0, time=              175000
  [State Change] -> State 0xc
  [DPMEM Write] we_a asserted at time=              175000
  [DPMEM Write] we_a asserted at time=              185000
  [State Change] -> State 0xd
  [Master Output] tdata=0x6162636465666768, tlast=0, time=              185000
  Write packet sent
  [Master Output] tdata=0x6162636465666768, tlast=0, time=              195000
  [State Change] -> State 0xe
  [DPMEM Write] we_a asserted at time=              195000
  [DPMEM Write] we_a asserted at time=              205000
  [State Change] -> State 0xf
  [Master Output] tdata=0x6162636465666768, tlast=0, time=              205000
  [Master Output] tdata=0x6162636465666768, tlast=0, time=              215000
  [State Change] -> State 0x0
  [DPMEM Write] we_a asserted at time=              215000
  [DPMEM Write] we_a asserted at time=              225000
  [State Change] -> IDLE
  [Master Output] tdata=0x6162636465666768, tlast=0, time=              225000
  [Master Output] tdata=0x6162636465666768, tlast=0, time=              235000
  [State Change] -> WR_PKT
  [DPMEM Write] we_a asserted at time=              235000
UAlink write opcode 6768
UAlink write opcode beef
  [DPMEM Write] we_a asserted at time=              245000
  [State Change] -> State 0x3
  [Master Output] tdata=0xdeadbeefcafebeef, tlast=0, time=              245000
UAlink write opcode beef
  [Master Output] tdata=0xdeadbeefcafebeef, tlast=1, time=              255000
  [State Change] -> IDLE
  [Master Output] tdata=0x6162636465666768, tlast=1, time=              265000
  [Master Output] tdata=0xdeadbeefcafebef1, tlast=1, time=              275000
  [State Change] -> State 0x0
  [State Change] -> IDLE
  [Master Output] tdata=0x6162636465666768, tlast=1, time=              285000
  [Master Output] tdata=0xdeadbeefcafebef3, tlast=1, time=              295000
  [State Change] -> State 0x0
  [State Change] -> IDLE
  [Master Output] tdata=0x6162636465666768, tlast=1, time=              305000
  [Master Output] tdata=0xdeadbeefcafebef5, tlast=1, time=              315000
  [State Change] -> State 0x0
  [State Change] -> IDLE
  [Master Output] tdata=0x6162636465666768, tlast=1, time=              325000
  [State Change] -> State 0x0
  [State Change] -> IDLE
  [State Change] -> State 0x0

=== Test 2: Memory Read Operation (opcode 0x0145) ===
  Sending read packet
  [Master Output] tdata=0x6162636465666768, tlast=0, time=              435000
UAlink write opcode 0003
  [Master Output] tdata=0x0145000000000003, tlast=0, time=              445000
UAlink write opcode 0003
  [Master Output] tdata=0x0145000000000003, tlast=0, time=              455000
  [State Change] -> IDLE
  [Master Output] tdata=0xxxxxxxxxxxxxxxxx, tlast=1, time=              465000
  [Master Output] tdata=0xxxxxxxxxxxxxxxxx, tlast=1, time=              475000
  [State Change] -> WR_PKT
  [State Change] -> State 0x3
  [Master Output] tdata=0xxxxxxxxxxxxxxxxx, tlast=1, time=              485000
  [Master Output] tdata=0xxxxxxxxxxxxxxxxx, tlast=1, time=              495000
  [State Change] -> READ_OPc1
  [State Change] -> State 0x5
  [Master Output] tdata=0xxxxxxxxxxxxxxxxx, tlast=1, time=              505000
  Read packet sent, waiting for response...
  [Master Output] tdata=0xxxxxxxxxxxxxxxxx, tlast=1, time=              515000
  [State Change] -> State 0x6
  [State Change] -> State 0x7
  [Master Output] tdata=0xxxxxxxxxxxxxxxxx, tlast=1, time=              525000
  [Master Output] tdata=0xxxxxxxxxxxxxxxxx, tlast=1, time=              535000
  [State Change] -> READ_OPc2
  [State Change] -> State 0x9
  [Master Output] tdata=0xxxxxxxxxxxxxxxxx, tlast=1, time=              545000
  [Master Output] tdata=0x3000000000000000, tlast=1, time=              555000
  [State Change] -> READ_OPc1
  [State Change] -> IDLE
  [Master Output] tdata=0xxxxxxxxxxxxxxxxx, tlast=1, time=              565000
  [Master Output] tdata=0x3000000000000000, tlast=1, time=              575000
  [State Change] -> State 0x0
  [State Change] -> IDLE
  [Master Output] tdata=0xxxxxxxxxxxxxxxxx, tlast=1, time=              585000
  [Master Output] tdata=0x3000000000000000, tlast=1, time=              595000
  [State Change] -> State 0x0
  [State Change] -> IDLE
  [Master Output] tdata=0xxxxxxxxxxxxxxxxx, tlast=1, time=              605000
  [Master Output] tdata=0x3000000000000000, tlast=1, time=              615000
  [State Change] -> State 0x0
  [State Change] -> IDLE
  [Master Output] tdata=0xxxxxxxxxxxxxxxxx, tlast=1, time=              625000
  [Master Output] tdata=0x0000000000000000, tlast=1, time=              635000
  [State Change] -> State 0x0
  [State Change] -> IDLE
  [State Change] -> State 0x0

=== Test 3: Multiple Write Operations ===
  Sending write packet: data=0x1111111111111111
  [Master Output] tdata=0xxxxxxxxxxxxxxxxx, tlast=0, time=              855000
UAlink write opcode 0003
  [Master Output] tdata=0x0245000000000003, tlast=0, time=              865000
UAlink write opcode 0003
UAlink write opcode 0003
  [Master Output] tdata=0x0245000000000003, tlast=0, time=              875000
  [State Change] -> IDLE
UAlink write opcode 0003
  [Master Output] tdata=0xxxxxxxxxxxxxxxxx, tlast=0, time=              885000
  [Master Output] tdata=0xxxxxxxxxxxxxxxxx, tlast=0, time=              895000
  [State Change] -> State 0xa
  [State Change] -> State 0xb
  [Master Output] tdata=0xxxxxxxxxxxxxxxxx, tlast=0, time=              905000
  [Master Output] tdata=0xxxxxxxxxxxxxxxxx, tlast=0, time=              915000
  [State Change] -> State 0xc
  [DPMEM Write] we_a asserted at time=              915000
  [DPMEM Write] we_a asserted at time=              925000
  [State Change] -> State 0xd
  [Master Output] tdata=0xxxxxxxxxxxxxxxxx, tlast=0, time=              925000
  Write packet sent
  [Master Output] tdata=0xxxxxxxxxxxxxxxxx, tlast=0, time=              935000
  [State Change] -> State 0xe
  [DPMEM Write] we_a asserted at time=              935000
  [DPMEM Write] we_a asserted at time=              945000
  [State Change] -> State 0xf
  [Master Output] tdata=0xxxxxxxxxxxxxxxxx, tlast=0, time=              945000
  [Master Output] tdata=0xxxxxxxxxxxxxxxxx, tlast=0, time=              955000
  [State Change] -> State 0x0
  [DPMEM Write] we_a asserted at time=              955000
  [DPMEM Write] we_a asserted at time=              965000
  [State Change] -> IDLE
  [Master Output] tdata=0xxxxxxxxxxxxxxxxx, tlast=0, time=              965000
  [Master Output] tdata=0xxxxxxxxxxxxxxxxx, tlast=0, time=              975000
  [State Change] -> WR_PKT
  [DPMEM Write] we_a asserted at time=              975000
UAlink write opcode xxxx
UAlink write opcode 1111
  [DPMEM Write] we_a asserted at time=              985000
  [State Change] -> State 0x3
  [Master Output] tdata=0x1111111111111111, tlast=0, time=              985000
UAlink write opcode 1111
  [Master Output] tdata=0x1111111111111111, tlast=1, time=              995000
  [State Change] -> IDLE
  [Master Output] tdata=0xxxxxxxxxxxxxxxxx, tlast=1, time=             1005000
  [Master Output] tdata=0x1111111111111113, tlast=1, time=             1015000
  [State Change] -> State 0x0
  [State Change] -> IDLE
  [Master Output] tdata=0xxxxxxxxxxxxxxxxx, tlast=1, time=             1025000
  [Master Output] tdata=0x1111111111111115, tlast=1, time=             1035000
  [State Change] -> State 0x0
  [State Change] -> IDLE
  [Master Output] tdata=0xxxxxxxxxxxxxxxxx, tlast=1, time=             1045000
  [Master Output] tdata=0x1111111111111117, tlast=1, time=             1055000
  [State Change] -> State 0x0
  [State Change] -> IDLE
  [Master Output] tdata=0xxxxxxxxxxxxxxxxx, tlast=1, time=             1065000
  [State Change] -> State 0x0
  [State Change] -> IDLE
  [State Change] -> State 0x0
  Sending write packet: data=0x2222222222222222
  [Master Output] tdata=0xxxxxxxxxxxxxxxxx, tlast=0, time=             1175000
UAlink write opcode 0003
  [Master Output] tdata=0x0245000000000003, tlast=0, time=             1185000
UAlink write opcode 0003
UAlink write opcode 0003
  [Master Output] tdata=0x0245000000000003, tlast=0, time=             1195000
  [State Change] -> IDLE
UAlink write opcode 0003
  [Master Output] tdata=0xxxxxxxxxxxxxxxxx, tlast=0, time=             1205000
  [Master Output] tdata=0xxxxxxxxxxxxxxxxx, tlast=0, time=             1215000
  [State Change] -> State 0xa
  [State Change] -> State 0xb
  [Master Output] tdata=0xxxxxxxxxxxxxxxxx, tlast=0, time=             1225000
  [Master Output] tdata=0xxxxxxxxxxxxxxxxx, tlast=0, time=             1235000
  [State Change] -> State 0xc
  [DPMEM Write] we_a asserted at time=             1235000
  [DPMEM Write] we_a asserted at time=             1245000
  [State Change] -> State 0xd
  [Master Output] tdata=0xxxxxxxxxxxxxxxxx, tlast=0, time=             1245000
  Write packet sent
  [Master Output] tdata=0xxxxxxxxxxxxxxxxx, tlast=0, time=             1255000
  [State Change] -> State 0xe
  [DPMEM Write] we_a asserted at time=             1255000
  [DPMEM Write] we_a asserted at time=             1265000
  [State Change] -> State 0xf
  [Master Output] tdata=0xxxxxxxxxxxxxxxxx, tlast=0, time=             1265000
  [Master Output] tdata=0xxxxxxxxxxxxxxxxx, tlast=0, time=             1275000
  [State Change] -> State 0x0
  [DPMEM Write] we_a asserted at time=             1275000
  [DPMEM Write] we_a asserted at time=             1285000
  [State Change] -> IDLE
  [Master Output] tdata=0xxxxxxxxxxxxxxxxx, tlast=0, time=             1285000
  [Master Output] tdata=0xxxxxxxxxxxxxxxxx, tlast=0, time=             1295000
  [State Change] -> WR_PKT
  [DPMEM Write] we_a asserted at time=             1295000
UAlink write opcode xxxx
UAlink write opcode 2222
  [DPMEM Write] we_a asserted at time=             1305000
  [State Change] -> State 0x3
  [Master Output] tdata=0x2222222222222222, tlast=0, time=             1305000
UAlink write opcode 2222
  [Master Output] tdata=0x2222222222222222, tlast=1, time=             1315000
  [State Change] -> IDLE
  [Master Output] tdata=0xxxxxxxxxxxxxxxxx, tlast=1, time=             1325000
  [Master Output] tdata=0x2222222222222224, tlast=1, time=             1335000
  [State Change] -> State 0x0
  [State Change] -> IDLE
  [Master Output] tdata=0xxxxxxxxxxxxxxxxx, tlast=1, time=             1345000
  [Master Output] tdata=0x2222222222222226, tlast=1, time=             1355000
  [State Change] -> State 0x0
  [State Change] -> IDLE
  [Master Output] tdata=0xxxxxxxxxxxxxxxxx, tlast=1, time=             1365000
  [Master Output] tdata=0x2222222222222228, tlast=1, time=             1375000
  [State Change] -> State 0x0
  [State Change] -> IDLE
  [Master Output] tdata=0xxxxxxxxxxxxxxxxx, tlast=1, time=             1385000
  [State Change] -> State 0x0
  [State Change] -> IDLE
  [State Change] -> State 0x0

=== Test 4: Read After Multiple Writes ===
  Sending read packet
  [Master Output] tdata=0xxxxxxxxxxxxxxxxx, tlast=0, time=             1495000
UAlink write opcode 0003
  [Master Output] tdata=0x0145000000000003, tlast=0, time=             1505000
UAlink write opcode 0003
  [Master Output] tdata=0x0145000000000003, tlast=0, time=             1515000
  [State Change] -> IDLE
  [Master Output] tdata=0xxxxxxxxxxxxxxxxx, tlast=1, time=             1525000
  [Master Output] tdata=0xxxxxxxxxxxxxxxxx, tlast=1, time=             1535000
  [State Change] -> WR_PKT
  [State Change] -> State 0x3
  [Master Output] tdata=0xxxxxxxxxxxxxxxxx, tlast=1, time=             1545000
  [Master Output] tdata=0xxxxxxxxxxxxxxxxx, tlast=1, time=             1555000
  [State Change] -> READ_OPc1
  [State Change] -> State 0x5
  [Master Output] tdata=0xxxxxxxxxxxxxxxxx, tlast=1, time=             1565000
  Read packet sent, waiting for response...
  [Master Output] tdata=0xxxxxxxxxxxxxxxxx, tlast=1, time=             1575000
  [State Change] -> State 0x6
  [State Change] -> State 0x7
  [Master Output] tdata=0xxxxxxxxxxxxxxxxx, tlast=1, time=             1585000
  [Master Output] tdata=0xxxxxxxxxxxxxxxxx, tlast=1, time=             1595000
  [State Change] -> READ_OPc2
  [State Change] -> State 0x9
  [Master Output] tdata=0xxxxxxxxxxxxxxxxx, tlast=1, time=             1605000
  [Master Output] tdata=0x3000000000000000, tlast=1, time=             1615000
  [State Change] -> READ_OPc1
  [State Change] -> IDLE
  [Master Output] tdata=0xxxxxxxxxxxxxxxxx, tlast=1, time=             1625000
  [Master Output] tdata=0x3000000000000000, tlast=1, time=             1635000
  [State Change] -> State 0x0
  [State Change] -> IDLE
  [Master Output] tdata=0xxxxxxxxxxxxxxxxx, tlast=1, time=             1645000
  [Master Output] tdata=0x3000000000000000, tlast=1, time=             1655000
  [State Change] -> State 0x0
  [State Change] -> IDLE
  [Master Output] tdata=0xxxxxxxxxxxxxxxxx, tlast=1, time=             1665000
  [Master Output] tdata=0x3000000000000000, tlast=1, time=             1675000
  [State Change] -> State 0x0
  [State Change] -> IDLE
  [Master Output] tdata=0xxxxxxxxxxxxxxxxx, tlast=1, time=             1685000
  [Master Output] tdata=0x0000000000000000, tlast=1, time=             1695000
  [State Change] -> State 0x0
  [State Change] -> IDLE
  [State Change] -> State 0x0

========================================
All Tests Completed!
========================================
ualink_turbordwr_tb.v:351: $finish called at 1975000 (1ps)
