FPGA_related/Jan6_rawsetget.vcd
$date
   Jan 06, 2026 12:59:48
$end
$version
   ChipScope Pro Analyzer  13.2 O.61xd (Build 13200.11.171.1160)
$end
$timescale
    1ns
$end

$scope module UALinkchipscope_setup $end
$var wire  1  n0 DataPort[0] $end
$var wire  1  n1 DataPort[1] $end
$var wire  1  n2 DataPort[2] $end
$var wire  1  n3 DataPort[3] $end
$var wire  1  n4 DataPort[4] $end
$var wire  1  n5 DataPort[5] $end
$var wire  1  n6 DataPort[6] $end
$var wire  1  n7 DataPort[7] $end
$var wire  1  n8 DataPort[8] $end
$var wire  1  n9 DataPort[9] $end
$var wire  1  n10 DataPort[10] $end
$var wire  1  n11 DataPort[11] $end
$var wire  1  n12 DataPort[12] $end
$var wire  1  n13 DataPort[13] $end
$var wire  1  n14 DataPort[14] $end
$var wire  1  n15 DataPort[15] $end
$var wire  1  n16 DataPort[16] $end
$var wire  1  n17 DataPort[17] $end
$var wire  1  n18 DataPort[18] $end
$var wire  1  n19 DataPort[19] $end
$var wire  1  n20 DataPort[20] $end
$var wire  1  n21 DataPort[21] $end
$var wire  1  n22 DataPort[22] $end
$var wire  1  n23 DataPort[23] $end
$var wire  1  n24 DataPort[24] $end
$var wire  1  n25 DataPort[25] $end
$var wire  1  n26 DataPort[26] $end
$var wire  1  n27 DataPort[27] $end
$var wire  1  n28 DataPort[28] $end
$var wire  1  n29 DataPort[29] $end
$var wire  1  n30 DataPort[30] $end
$var wire  1  n31 DataPort[31] $end
$var wire  1  n32 DataPort[32] $end
$var wire  1  n33 DataPort[33] $end
$var wire  1  n34 DataPort[34] $end
$var wire  1  n35 DataPort[35] $end
$var wire  1  n36 DataPort[36] $end
$var wire  1  n37 DataPort[37] $end
$var wire  1  n38 DataPort[38] $end
$var wire  1  n39 DataPort[39] $end
$var wire  1  n40 DataPort[40] $end
$var wire  1  n41 DataPort[41] $end
$var wire  1  n42 DataPort[42] $end
$var wire  1  n43 DataPort[43] $end
$var wire  1  n44 DataPort[44] $end
$var wire  1  n45 DataPort[45] $end
$var wire  1  n46 DataPort[46] $end
$var wire  1  n47 DataPort[47] $end
$var wire  1  n48 DataPort[48] $end
$var wire  1  n49 DataPort[49] $end
$var wire  1  n50 empty0 $end
$var wire  1  n51 din_a0 $end
$var wire  1  n52 addr_a0 $end
$var wire  1  n53 we_a $end
$var wire  1  n54 state0 $end
$var wire  1  n55 state1 $end
$var wire  1  n56 state2 $end
$var wire  1  n57 state3 $end
$var wire  1  n58 s_axis_tlast0 $end
$var wire  1  n59 s_axis_tready0 $end
$var wire  1  n60 s_axis_valid0 $end
$var wire  1  n61 m_axis_tlast $end
$var wire  1  n62 m_axis_tready $end
$var wire  1  n63 m_axis_tvalid $end
$var wire  1  n64 DataPort[64] $end
$var wire  1  n65 DataPort[65] $end
$var wire  1  n66 DataPort[66] $end
$var wire  1  n67 DataPort[67] $end
$var wire  1  n68 DataPort[68] $end
$var wire  1  n69 DataPort[69] $end
$var wire  1  n70 DataPort[70] $end
$var wire  1  n71 DataPort[71] $end
$var wire  1  n72 DataPort[72] $end
$var wire  1  n73 DataPort[73] $end
$var wire  1  n74 DataPort[74] $end
$var wire  1  n75 DataPort[75] $end
$var wire  1  n76 DataPort[76] $end
$var wire  1  n77 DataPort[77] $end
$var wire  1  n78 DataPort[78] $end
$var wire  1  n79 DataPort[79] $end
$var wire  1  n80 DataPort[80] $end
$var wire  1  n81 DataPort[81] $end
$var wire  1  n82 DataPort[82] $end
$var wire  1  n83 DataPort[83] $end
$var wire  1  n84 DataPort[84] $end
$var wire  1  n85 DataPort[85] $end
$var wire  1  n86 DataPort[86] $end
$var wire  1  n87 DataPort[87] $end
$var wire  1  n88 DataPort[88] $end
$var wire  1  n89 DataPort[89] $end
$var wire  1  n90 DataPort[90] $end
$var wire  1  n91 DataPort[91] $end
$var wire  1  n92 DataPort[92] $end
$var wire  1  n93 DataPort[93] $end
$var wire  1  n94 DataPort[94] $end
$var wire  1  n95 DataPort[95] $end
$var wire  1  n96 DataPort[96] $end
$var wire  1  n97 DataPort[97] $end
$var wire  1  n98 DataPort[98] $end
$var wire  1  n99 DataPort[99] $end
$var wire  1  n100 DataPort[100] $end
$var wire  1  n101 DataPort[101] $end
$var wire  1  n102 DataPort[102] $end
$var wire  1  n103 DataPort[103] $end
$var wire  1  n104 DataPort[104] $end
$var wire  1  n105 DataPort[105] $end
$var wire  1  n106 DataPort[106] $end
$var wire  1  n107 DataPort[107] $end
$var wire  1  n108 DataPort[108] $end
$var wire  1  n109 DataPort[109] $end
$var wire  1  n110 DataPort[110] $end
$var wire  1  n111 DataPort[111] $end
$var wire  1  n112 DataPort[112] $end
$var wire  1  n113 DataPort[113] $end
$var wire  1  n114 DataPort[114] $end
$var wire  1  n115 DataPort[115] $end
$var wire  1  n116 DataPort[116] $end
$var wire  1  n117 DataPort[117] $end
$var wire  1  n118 DataPort[118] $end
$var wire  1  n119 DataPort[119] $end
$var wire  1  n120 DataPort[120] $end
$var wire  1  n121 DataPort[121] $end
$var wire  1  n122 DataPort[122] $end
$var wire  1  n123 DataPort[123] $end
$var wire  1  n124 DataPort[124] $end
$var wire  1  n125 DataPort[125] $end
$var wire  1  n126 DataPort[126] $end
$var wire  1  n127 DataPort[127] $end
$var wire  1  n128 DataPort[128] $end
$var wire  1  n129 DataPort[129] $end
$var wire  1  n130 DataPort[130] $end
$var wire  1  n131 DataPort[131] $end
$var wire  1  n132 DataPort[132] $end
$var wire  1  n133 DataPort[133] $end
$var wire  1  n134 DataPort[134] $end
$var wire  1  n135 DataPort[135] $end
$var wire  1  n136 DataPort[136] $end
$var wire  1  n137 DataPort[137] $end
$var wire  1  n138 DataPort[138] $end
$var wire  1  n139 DataPort[139] $end
$var wire  1  n140 DataPort[140] $end
$var wire  1  n141 DataPort[141] $end
$var wire  1  n142 DataPort[142] $end
$var wire  1  n143 DataPort[143] $end
$var wire  1  n144 DataPort[144] $end
$var wire  1  n145 DataPort[145] $end
$var wire  1  n146 DataPort[146] $end
$var wire  1  n147 DataPort[147] $end
$var wire  1  n148 DataPort[148] $end
$var wire  1  n149 DataPort[149] $end
$var wire  1  n150 DataPort[150] $end
$var wire  1  n151 DataPort[151] $end
$var wire  1  n152 DataPort[152] $end
$var wire  1  n153 DataPort[153] $end
$var wire  1  n154 DataPort[154] $end
$var wire  1  n155 DataPort[155] $end
$var wire  1  n156 DataPort[156] $end
$var wire  1  n157 DataPort[157] $end
$var wire  1  n158 DataPort[158] $end
$var wire  1  n159 DataPort[159] $end
$var wire  1  n160 DataPort[160] $end
$var wire  1  n161 DataPort[161] $end
$var wire  1  n162 DataPort[162] $end
$var wire  1  n163 DataPort[163] $end
$var wire  1  n164 DataPort[164] $end
$var wire  1  n165 DataPort[165] $end
$var wire  1  n166 DataPort[166] $end
$var wire  1  n167 DataPort[167] $end
$var wire  1  n168 DataPort[168] $end
$var wire  1  n169 DataPort[169] $end
$var wire  1  n170 DataPort[170] $end
$var wire  1  n171 DataPort[171] $end
$var wire  1  n172 DataPort[172] $end
$var wire  1  n173 DataPort[173] $end
$var wire  1  n174 DataPort[174] $end
$var wire  1  n175 DataPort[175] $end
$var wire  1  n176 DataPort[176] $end
$var wire  1  n177 DataPort[177] $end
$var wire  1  n178 DataPort[178] $end
$var wire  1  n179 DataPort[179] $end
$var wire  1  n180 DataPort[180] $end
$var wire  1  n181 DataPort[181] $end
$var wire  1  n182 DataPort[182] $end
$var wire  1  n183 DataPort[183] $end
$var wire  1  n184 DataPort[184] $end
$var wire  1  n185 DataPort[185] $end
$var wire  1  n186 DataPort[186] $end
$var wire  1  n187 DataPort[187] $end
$var wire  1  n188 DataPort[188] $end
$var wire  1  n189 DataPort[189] $end
$var wire  1  n190 DataPort[190] $end
$var wire  1  n191 DataPort[191] $end
$var wire 8 n192 dpmem_addr $end
$var wire 64 n193 m_axis_tdata $end
$var wire 64 n194 OUT_A $end
$var wire 4 n195 state $end
$upscope $end
$enddefinitions $end

#0
0n0
0n1
0n2
0n3
0n4
0n5
0n6
0n7
1n8
1n9
1n10
1n11
1n12
1n13
1n14
1n15
1n16
1n17
1n18
1n19
1n20
1n21
1n22
1n23
1n24
1n25
1n26
1n27
1n28
1n29
1n30
1n31
1n32
1n33
1n34
1n35
1n36
1n37
1n38
1n39
1n40
1n41
1n42
1n43
1n44
1n45
1n46
1n47
1n48
1n49
1n50
0n51
1n52
0n53
0n54
0n55
0n56
0n57
0n58
1n59
0n60
1n61
1n62
0n63
0n64
0n65
0n66
0n67
0n68
0n69
0n70
0n71
0n72
0n73
0n74
0n75
0n76
0n77
0n78
0n79
0n80
0n81
0n82
0n83
0n84
0n85
0n86
0n87
0n88
0n89
0n90
0n91
0n92
0n93
0n94
0n95
0n96
0n97
0n98
0n99
0n100
0n101
0n102
0n103
0n104
0n105
0n106
0n107
0n108
0n109
0n110
0n111
0n112
0n113
0n114
0n115
0n116
0n117
0n118
0n119
0n120
0n121
0n122
0n123
0n124
0n125
0n126
0n127
0n128
0n129
0n130
0n131
0n132
0n133
0n134
0n135
0n136
0n137
0n138
0n139
0n140
0n141
0n142
0n143
0n144
0n145
0n146
0n147
0n148
0n149
0n150
0n151
0n152
0n153
0n154
0n155
0n156
0n157
0n158
0n159
0n160
0n161
0n162
0n163
0n164
0n165
0n166
0n167
0n168
0n169
0n170
0n171
0n172
0n173
0n174
0n175
0n176
0n177
0n178
0n179
0n180
0n181
0n182
0n183
0n184
0n185
0n186
0n187
0n188
0n189
0n190
0n191
b0 n192
b0 n193
b0 n194
b0 n195
#16
1n60
#19
0n50
0n61
1n63
#20
1n54
1n128
1n133
1n136
1n137
1n140
1n141
1n148
1n150
1n152
1n157
1n163
1n176
1n178
1n182
b10000100110011010100000010000100001000000000000100010100000000 n193
b1 n195
#21
0n128
0n133
0n136
0n137
1n138
1n142
1n146
1n151
1n156
0n163
0n176
0n178
1n184
1n188
b1110100110101000011000100000000000000000100000000010001 n193
#22
1n133
1n143
0n146
0n148
0n152
1n155
0n156
1n159
1n161
1n169
1n183
0n184
1n187
0n188
1n189
1n191
b10000011110100110000001010100000000010000000101100000010101000 n193
#23
1n5
1n56
0n133
0n138
0n140
0n141
0n142
0n143
0n150
0n151
0n155
0n157
0n159
0n161
0n169
0n182
0n183
0n187
0n189
0n191
b100000 n192
b0 n193
b101 n195
#24
1n51
1n53
#25
1n0
0n51
1n64
1n68
1n69
1n72
1n74
1n78
1n80
1n86
1n90
1n94
1n97
1n102
1n104
1n106
1n110
1n112
1n114
1n118
1n121
1n122
1n126
b100001 n192
b11000101000101010000010100010001000010010001010100010101000110 n194
#26
0n0
1n1
1n51
0n64
1n65
b100010 n192
b11001001000101010000010100010001000010010001010100010101000110 n194
#27
1n0
0n51
1n64
b100011 n192
b11001101000101010000010100010001000010010001010100010101000110 n194
#28
0n0
0n1
1n2
1n51
0n64
0n65
1n66
b100100 n192
b11010001000101010000010100010001000010010001010100010101000110 n194
#29
1n0
0n51
1n64
b100101 n192
b11010101000101010000010100010001000010010001010100010101000110 n194
#30
0n0
1n1
1n51
0n64
1n65
b100110 n192
b11011001000101010000010100010001000010010001010100010101000110 n194
#31
1n0
0n51
1n64
b100111 n192
b11011101000101010000010100010001000010010001010100010101000110 n194
#32
0n53
0n56
1n58
0n64
0n65
0n66
1n67
1n129
1n136
1n148
1n149
1n152
1n155
1n156
1n157
1n160
1n161
1n163
1n165
1n168
1n169
1n171
1n174
1n175
1n189
1n190
b1000000001001100000011100100101011110010110000000001100000 n193
b11100001000101010000010100010001000010010001010100010101000110 n194
b1 n195
#33
0n0
0n1
0n2
1n3
0n58
0n60
0n129
0n136
1n145
0n149
0n152
1n154
0n155
0n160
0n161
0n163
0n165
0n168
0n169
0n171
0n174
0n175
1n184
0n189
0n190
b101000 n192
b100100011010000000000000000000000000000000001 n193
#34
0n67
0n68
0n69
0n72
0n74
0n78
0n80
0n86
0n90
0n94
0n97
0n102
0n104
0n106
0n110
0n112
0n114
0n118
0n121
0n122
0n126
1n144
1n149
1n150
1n152
0n156
1n158
1n162
1n164
1n165
1n166
1n173
1n176
1n181
1n182
0n184
1n189
b11100110110010101110100001000000110000100100000 n193
b0 n194
#35
1n132
1n133
1n141
0n144
0n145
0n150
0n152
0n154
0n158
1n161
0n166
1n170
1n172
1n178
1n179
0n181
0n182
1n185
1n187
0n189
b11000000100000001100000010000000110110001101000000110100001010 n193
#36
1n128
1n136
1n138
0n141
1n142
1n144
0n148
0n149
1n150
1n154
0n157
1n158
0n162
0n164
0n165
1n166
1n168
0n172
0n173
1n174
0n179
1n182
1n186
0n187
1n190
b11000101000101010000010100010001000010010001010100010101000110 n193
#37
0n128
1n129
b11001001000101010000010100010001000010010001010100010101000110 n193
#38
1n128
b11001101000101010000010100010001000010010001010100010101000110 n193
#39
0n128
0n129
1n130
b11010001000101010000010100010001000010010001010100010101000110 n193
#40
1n128
b11010101000101010000010100010001000010010001010100010101000110 n193
#41
0n128
1n129
b11011001000101010000010100010001000010010001010100010101000110 n193
#42
1n128
b11011101000101010000010100010001000010010001010100010101000110 n193
#43
0n128
0n129
0n130
1n131
b11100001000101010000010100010001000010010001010100010101000110 n193
#44
1n61
1n128
1n130
0n132
0n133
0n136
1n137
0n138
1n139
0n142
0n144
1n145
1n147
1n149
1n151
1n152
1n155
0n158
1n160
0n166
1n167
1n169
1n179
1n180
1n181
1n183
1n184
0n190
b110100001010111010100000110110000011010001111111110100000111 n193
#45
1n50
0n54
0n63
0n128
0n130
0n131
0n137
0n139
0n145
0n147
0n149
0n150
0n151
0n152
0n154
0n155
0n160
0n161
0n167
0n168
0n169
0n170
0n174
0n176
0n178
0n179
0n180
0n181
0n182
0n183
0n184
0n185
0n186
b0 n193
b0 n195
#272
1n60
#275
0n50
0n61
1n63
#276
1n54
1n128
1n133
1n136
1n137
1n140
1n141
1n148
1n150
1n152
1n157
1n163
1n176
1n178
1n182
b10000100110011010100000010000100001000000000000100010100000000 n193
b1 n195
#277
0n128
0n133
1n139
0n140
1n146
1n151
1n156
0n163
0n176
0n178
1n184
1n188
b101011110101000011000100000000000000000100000000010001 n193
#278
1n128
1n133
0n137
1n138
1n140
0n146
0n148
0n152
1n155
0n156
1n159
1n161
1n169
1n183
0n184
1n187
0n188
1n189
1n191
b10000100111101110000001010100000000010000000101100000010101000 n193
#279
0n54
1n55
1n56
1n58
0n128
0n133
0n136
0n138
0n139
0n140
0n141
0n150
0n151
0n155
0n157
0n159
0n161
0n169
0n182
0n183
0n187
0n189
0n191
b0 n193
b110 n195
#280
0n58
0n60
1n129
1n130
1n131
1n132
1n133
1n134
1n135
1n139
1n140
1n141
1n142
1n145
1n148
1n154
1n156
1n157
1n184
b1111111001111000000100100011010000000000000000000000000000000001 n193
#281
0n129
0n130
0n131
0n132
0n133
0n134
0n135
0n139
0n140
0n141
0n142
1n146
1n150
1n152
0n154
0n156
0n157
1n158
1n162
1n163
1n166
1n168
1n170
1n172
1n174
1n176
1n178
1n182
0n184
1n189
b10101100100000101001100010101010100010100100000 n193
#282
1n128
1n133
1n134
1n141
0n145
0n146
1n149
0n150
0n152
1n157
0n158
1n161
0n163
1n164
1n165
0n166
0n168
1n173
0n174
1n179
0n182
1n185
1n187
0n189
b110000100100000001100000010000000110110001101000000110100001010 n193
#283
1n0
0n128
0n133
0n134
0n141
0n148
0n149
0n157
0n161
0n162
0n164
0n165
0n170
0n172
0n173
0n176
0n178
0n179
0n185
0n187
b101001 n192
b0 n193
#284
0n0
1n1
b101010 n192
#285
1n0
b101011 n192
#286
0n0
0n1
1n2
b101100 n192
#287
1n0
b101101 n192
#288
0n0
1n1
b101110 n192
#289
1n0
b101111 n192
#290
0n0
0n1
0n2
0n3
1n4
b110000 n192
#291
1n54
0n55
0n56
1n129
1n136
1n148
1n149
1n152
1n155
1n156
1n157
1n160
1n161
1n163
1n165
1n168
1n169
1n171
1n174
1n175
1n184
1n185
1n186
1n188
b1000000001001100000011100100101011110010110000000000010111 n193
b1 n195
#292
0n129
0n136
1n145
0n149
0n152
1n154
0n155
0n160
0n161
0n163
0n165
0n168
0n169
0n171
0n174
0n175
0n185
0n186
0n188
b100100011010000000000000000000000000000000001 n193
#293
1n144
1n146
0n148
1n149
1n150
1n152
0n156
1n158
1n162
1n164
1n165
1n166
1n173
1n176
1n181
1n182
1n186
1n187
b11001110110010101110100001000000110000100001101 n193
#294
1n61
1n129
1n131
0n144
0n145
0n146
0n149
0n150
0n152
0n154
0n157
0n158
0n162
0n164
0n165
1n169
1n172
1n175
0n176
1n177
1n178
1n179
1n180
0n181
0n182
1n183
0n184
1n185
0n186
1n189
b101000000000000000000000000001000000101100101001111000101010 n193
#295
1n50
0n54
0n63
0n129
0n131
0n166
0n169
0n172
0n173
0n175
0n177
0n178
0n179
0n180
0n183
0n185
0n187
0n189
b0 n193
b0 n195
#512
0n8
0n9
0n10
0n11
0n12
0n13
0n14
0n15
0n16
0n17
0n18
0n19
0n20
0n21
0n22
0n23
0n24
0n25
0n26
0n27
0n28
0n29
0n30
0n31
0n32
0n33
0n34
0n35
0n36
0n37
0n38
0n39
0n40
0n41
0n42
0n43
0n44
0n45
0n46
0n47
0n48
0n49
0n52
#528
1n60
#531
0n50
0n61
1n63
#532
1n54
1n128
1n133
1n136
1n137
1n140
1n141
1n148
1n150
1n152
1n157
1n163
1n176
1n178
1n182
b10000100110011010100000010000100001000000000000100010100000000 n193
b1 n195
#533
0n128
0n133
1n139
0n140
1n146
1n151
1n156
0n163
0n176
0n178
1n184
1n188
b101011110101000011000100000000000000000100000000010001 n193
#534
1n128
1n133
0n137
1n138
1n140
0n146
0n148
0n152
1n155
0n156
1n159
1n161
1n169
1n183
0n184
1n187
0n188
1n189
1n191
b10000100111101110000001010100000000010000000101100000010101000 n193
#535
0n54
1n55
1n56
1n58
0n128
0n133
0n136
0n138
0n139
0n140
0n141
0n150
0n151
0n155
0n157
0n159
0n161
0n169
0n182
0n183
0n187
0n189
0n191
b0 n193
b110 n195
#536
0n58
0n60
1n129
1n130
1n131
1n132
1n133
1n134
1n135
1n139
1n140
1n141
1n142
1n145
1n148
1n154
1n156
1n157
1n184
b1111111001111000000100100011010000000000000000000000000000000001 n193
#537
0n129
0n130
0n131
0n132
0n133
0n134
0n135
0n139
0n140
0n141
0n142
1n146
1n150
1n152
0n154
0n156
0n157
1n158
1n162
1n163
1n166
1n168
1n170
1n172
1n174
1n176
1n178
1n182
0n184
1n189
b10101100100000101001100010101010100010100100000 n193
#538
1n128
1n133
1n134
1n141
0n145
0n146
1n149
0n150
0n152
1n157
0n158
1n161
0n163
1n164
1n165
0n166
0n168
1n173
0n174
1n179
0n182
1n185
1n187
0n189
b110000100100000001100000010000000110110001101000000110100001010 n193
#539
1n0
0n128
0n133
0n134
0n141
0n148
0n149
0n157
0n161
0n162
0n164
0n165
0n170
0n172
0n173
0n176
0n178
0n179
0n185
0n187
b110001 n192
b0 n193
#540
0n0
1n1
b110010 n192
#541
1n0
b110011 n192
#542
0n0
0n1
1n2
b110100 n192
#543
1n0
b110101 n192
#544
0n0
1n1
b110110 n192
#545
1n0
b110111 n192
#546
0n0
0n1
0n2
1n3
b111000 n192
#547
1n54
0n55
0n56
1n129
1n136
1n148
1n149
1n152
1n155
1n156
1n157
1n160
1n161
1n163
1n165
1n168
1n169
1n171
1n174
1n175
1n184
1n185
1n186
1n188
b1000000001001100000011100100101011110010110000000000010111 n193
b1 n195
#548
0n129
0n136
1n145
0n149
0n152
1n154
0n155
0n160
0n161
0n163
0n165
0n168
0n169
0n171
0n174
0n175
0n185
0n186
0n188
b100100011010000000000000000000000000000000001 n193
#549
1n144
1n146
0n148
1n149
1n150
1n152
0n156
1n158
1n162
1n164
1n165
1n166
1n173
1n176
1n181
1n182
1n186
1n187
b11001110110010101110100001000000110000100001101 n193
#550
1n61
1n129
1n131
0n144
0n145
0n146
0n149
0n150
0n152
0n154
0n157
0n158
0n162
0n164
0n165
1n169
1n172
1n175
0n176
1n177
1n178
1n179
1n180
0n181
0n182
1n183
0n184
1n185
0n186
1n189
b101000000000000000000000000001000000101100101001111000101010 n193
#551
1n50
0n54
0n63
0n129
0n131
0n166
0n169
0n172
0n173
0n175
0n177
0n178
0n179
0n180
0n183
0n185
0n187
0n189
b0 n193
b0 n195
